{
  "rooms": [
    {
      "north": 2,
      "east": 7,
      "objects": []
    },
    {
      "id": 2,
      "name": "Dining Room",
      "north": 5,
      "south": 1,
      "west": 3,
      "east": 4,
      "objects": []
    },
    {
      "id": 3,
      "name": "Kitchen",
      "east": 2,
      "objects": [
        {
          "name": "Knife"
        }
      ]
    },
    {
      "id": 4,
      "name": "Sun Room",
      "west": 2,
      "north": 6,
      "south": 7,
      "objects": []
    },
    {
      "id": 5,
      "name": "Bedroom",
      "south": 2,
      "east": 6,
      "objects": [
        {
          "name": "Pillow"
        }
      ]
    },
    {
      "id": 6,
      "name": "Bathroom",
      "west": 5,
      "south": 4,
      "objects": []
    },
    {
      "id": 7,
      "name": "Living room",
      "west": 1,
      "north": 4,
      "objects": [
        {
          "name": "Potted Plant"
        }
      ]
    }
  ]
}
